# Blender MTL File: 'None'
# Material Count: 1

newmtl Material.001
Ns 92.156863
Ka 0.300000 0.300000 0.300000
Kd 1.000000 1.000000 1.000000
Ks 0.000000 0.000000 0.000000
Ni 1.000000
d 1.000000
illum 2
map_Kd model.png
